uP_tb.vcd
$date
	Sun Nov 22 12:17:34 2020
$end
$version
	Icarus Verilog
$end
$timescale
	1ps
$end
$scope module testbench $end
$var wire 4 ! data_bus [3:0] $end
$var wire 1 " z_flag $end
$var wire 8 # program_byte [7:0] $end
$var wire 1 $ phase $end
$var wire 4 % oprnd [3:0] $end
$var wire 4 & instr [3:0] $end
$var wire 1 ' c_flag $end
$var wire 12 ( address_RAM [11:0] $end
$var wire 4 ) accu [3:0] $end
$var wire 12 * PC [11:0] $end
$var wire 4 + FF_out [3:0] $end
$var reg 1 , clock $end
$var reg 4 - pushbuttons [3:0] $end
$var reg 1 . reset $end
$var integer 32 / immediateDelay [31:0] $end
$var integer 32 0 jumpDelay [31:0] $end
$var integer 32 1 memoryDelay [31:0] $end
$var integer 32 2 nota [31:0] $end
$scope module uPmodule $end
$var wire 1 , clock $end
$var wire 4 3 data_bus [3:0] $end
$var wire 4 4 pushbuttons [3:0] $end
$var wire 1 . reset $end
$var wire 1 " z_flag $end
$var wire 8 5 program_byte [7:0] $end
$var wire 1 $ phase $end
$var wire 4 6 oprnd [3:0] $end
$var wire 4 7 instr [3:0] $end
$var wire 13 8 decode_out [12:0] $end
$var wire 7 9 decode_in [6:0] $end
$var wire 1 ' c_flag $end
$var wire 12 : address_RAM [11:0] $end
$var wire 4 ; accu [3:0] $end
$var wire 1 < ZERO $end
$var wire 12 = PC [11:0] $end
$var wire 4 > O_ALU [3:0] $end
$var wire 4 ? FF_out [3:0] $end
$var wire 1 @ C $end
$scope module ACCU7 $end
$var wire 1 , clock $end
$var wire 1 A enabled $end
$var wire 1 . reset $end
$var wire 4 B Q [3:0] $end
$var wire 4 C D [3:0] $end
$scope module F1 $end
$var wire 1 , clock $end
$var wire 1 A enabled $end
$var wire 1 . reset $end
$var wire 4 D Q [3:0] $end
$var wire 4 E D [3:0] $end
$scope module M3 $end
$var wire 1 F D $end
$var wire 1 , clock $end
$var wire 1 A enabled $end
$var wire 1 . reset $end
$var reg 1 G Q $end
$upscope $end
$scope module M4 $end
$var wire 1 H D $end
$var wire 1 , clock $end
$var wire 1 A enabled $end
$var wire 1 . reset $end
$var reg 1 I Q $end
$upscope $end
$scope module M5 $end
$var wire 1 J D $end
$var wire 1 , clock $end
$var wire 1 A enabled $end
$var wire 1 . reset $end
$var reg 1 K Q $end
$upscope $end
$scope module M7 $end
$var wire 1 L D $end
$var wire 1 , clock $end
$var wire 1 A enabled $end
$var wire 1 . reset $end
$var reg 1 M Q $end
$upscope $end
$upscope $end
$upscope $end
$scope module ALU6 $end
$var wire 4 N A [3:0] $end
$var wire 4 O B [3:0] $end
$var wire 3 P F [2:0] $end
$var wire 1 < FZ $end
$var wire 4 Q Y [3:0] $end
$var wire 1 @ FC $end
$var reg 5 R S [4:0] $end
$upscope $end
$scope module Decode1 $end
$var wire 7 S D [6:0] $end
$var reg 13 T Q [12:0] $end
$upscope $end
$scope module Fetch1 $end
$var wire 1 , clock $end
$var wire 1 U enabled $end
$var wire 1 . reset $end
$var wire 4 V op [3:0] $end
$var wire 4 W ins [3:0] $end
$var wire 8 X D [7:0] $end
$scope module m1 $end
$var wire 4 Y D [3:0] $end
$var wire 1 , clock $end
$var wire 1 U enabled $end
$var wire 1 . reset $end
$var wire 4 Z Q [3:0] $end
$scope module M3 $end
$var wire 1 [ D $end
$var wire 1 , clock $end
$var wire 1 U enabled $end
$var wire 1 . reset $end
$var reg 1 \ Q $end
$upscope $end
$scope module M4 $end
$var wire 1 ] D $end
$var wire 1 , clock $end
$var wire 1 U enabled $end
$var wire 1 . reset $end
$var reg 1 ^ Q $end
$upscope $end
$scope module M5 $end
$var wire 1 _ D $end
$var wire 1 , clock $end
$var wire 1 U enabled $end
$var wire 1 . reset $end
$var reg 1 ` Q $end
$upscope $end
$scope module M7 $end
$var wire 1 a D $end
$var wire 1 , clock $end
$var wire 1 U enabled $end
$var wire 1 . reset $end
$var reg 1 b Q $end
$upscope $end
$upscope $end
$scope module m9 $end
$var wire 4 c D [3:0] $end
$var wire 1 , clock $end
$var wire 1 U enabled $end
$var wire 1 . reset $end
$var wire 4 d Q [3:0] $end
$scope module M3 $end
$var wire 1 e D $end
$var wire 1 , clock $end
$var wire 1 U enabled $end
$var wire 1 . reset $end
$var reg 1 f Q $end
$upscope $end
$scope module M4 $end
$var wire 1 g D $end
$var wire 1 , clock $end
$var wire 1 U enabled $end
$var wire 1 . reset $end
$var reg 1 h Q $end
$upscope $end
$scope module M5 $end
$var wire 1 i D $end
$var wire 1 , clock $end
$var wire 1 U enabled $end
$var wire 1 . reset $end
$var reg 1 j Q $end
$upscope $end
$scope module M7 $end
$var wire 1 k D $end
$var wire 1 , clock $end
$var wire 1 U enabled $end
$var wire 1 . reset $end
$var reg 1 l Q $end
$upscope $end
$upscope $end
$upscope $end
$scope module Out0 $end
$var wire 4 m D [3:0] $end
$var wire 1 , clock $end
$var wire 1 n enabled $end
$var wire 1 . reset $end
$var reg 4 o Q [3:0] $end
$upscope $end
$scope module PC1 $end
$var wire 12 p D [11:0] $end
$var wire 1 , clock $end
$var wire 1 q enabled $end
$var wire 1 r load $end
$var wire 1 . reset $end
$var reg 12 s Q [11:0] $end
$upscope $end
$scope module PHase9 $end
$var wire 1 , clock $end
$var wire 1 t enabled $end
$var wire 1 . reset $end
$var reg 1 $ Q $end
$upscope $end
$scope module ROM1 $end
$var wire 12 u M [11:0] $end
$var wire 8 v O [7:0] $end
$upscope $end
$scope module bus_1 $end
$var wire 1 w B $end
$var wire 4 x D [3:0] $end
$var wire 4 y Q [3:0] $end
$upscope $end
$scope module bus_2 $end
$var wire 1 z B $end
$var wire 4 { D [3:0] $end
$var wire 4 | Q [3:0] $end
$upscope $end
$scope module f1 $end
$var wire 2 } D [1:0] $end
$var wire 1 , clock $end
$var wire 1 ~ enabled $end
$var wire 1 . reset $end
$var wire 2 !" Q [1:0] $end
$scope module m6 $end
$var wire 1 "" D $end
$var wire 1 , clock $end
$var wire 1 ~ enabled $end
$var wire 1 . reset $end
$var reg 1 #" Q $end
$upscope $end
$scope module m8 $end
$var wire 1 $" D $end
$var wire 1 , clock $end
$var wire 1 ~ enabled $end
$var wire 1 . reset $end
$var reg 1 %" Q $end
$upscope $end
$upscope $end
$scope module in $end
$var wire 1 &" B $end
$var wire 4 '" D [3:0] $end
$var wire 4 (" Q [3:0] $end
$upscope $end
$scope module ram1 $end
$var wire 1 )" cs $end
$var wire 4 *" data [3:0] $end
$var wire 12 +" dir [11:0] $end
$var wire 1 ," we $end
$var reg 4 -" dataO [3:0] $end
$upscope $end
$upscope $end
$upscope $end
$enddefinitions $end
#0
$dumpvars
bx -"
x,"
bx +"
bx *"
x)"
bx ("
b110 '"
x&"
x%"
x$"
x#"
x""
bx !"
x~
bx }
bx |
bx {
xz
bx y
bx x
xw
bx v
bx u
1t
bx s
xr
xq
bx p
bx o
xn
bx m
xl
xk
xj
xi
xh
xg
xf
xe
bx d
bx c
xb
xa
x`
x_
x^
x]
x\
x[
bx Z
bx Y
bx X
bx W
bx V
xU
bx T
bx S
bx R
bx Q
bx P
bx O
bx N
xM
xL
xK
xJ
xI
xH
xG
xF
bx E
bx D
bx C
bx B
xA
x@
bx ?
bx >
bx =
x<
bx ;
bx :
bx 9
bx 8
bx 7
bx 6
bx 5
b110 4
bx 3
b0 2
b100010100 1
b1010010000 0
b10000 /
0.
b110 -
0,
bx +
bx *
bx )
bx (
x'
bx &
bx %
x$
bx #
x"
bx !
$end
#2
1""
1<
b0 !
b0 3
b0 O
b0 m
b0 y
b0 |
b0 ("
b0 *"
0L
0J
0H
0F
0$"
b0 >
b0 C
b0 E
b0 Q
b0 {
b1 }
0@
b0 R
1e
1g
1i
1k
0[
0]
1_
0a
0~
0,"
0)"
0&"
0n
1z
0A
b0 P
0w
0r
1q
b1111 c
b100 Y
b1000000001000 8
b1000000001000 T
1U
0"
0'
b1001111 #
b1001111 5
b1001111 X
b1001111 v
b0 *
b0 =
b0 s
b0 u
0\
0^
0`
b1001111 (
b1001111 :
b1001111 p
b1001111 +"
b0 %
b0 6
b0 V
b0 Z
b0 x
0b
0f
0h
0j
b0 &
b0 7
b0 W
b0 d
0l
0G
0I
0K
b0 )
b0 ;
b0 B
b0 D
b0 N
0M
b0 9
b0 S
0$
b0 +
b0 ?
b0 o
0#"
b0 !"
0%"
1.
#3
0.
#5
0""
b0 }
0<
1L
1J
1H
1F
b1111 >
b1111 C
b1111 E
b1111 Q
b1111 {
b1111 R
bx !
bx 3
bx O
bx m
bx y
bx |
bx ("
bx *"
1~
1)"
0z
1A
b100 P
1[
1a
0U
b1011100100000 8
b1011100100000 T
b1101 Y
1$
1l
1j
1h
b1111001 9
b1111001 S
b1111 &
b1111 7
b1111 W
b1111 d
1f
b100 %
b100 6
b100 V
b100 Z
b100 x
1`
b10011011111 (
b10011011111 :
b10011011111 p
b10011011111 +"
b11011111 #
b11011111 5
b11011111 X
b11011111 v
b1 *
b1 =
b1 s
b1 u
1,
#10
0,
#15
b1111 R
b1111 !
b1111 3
b1111 O
b1111 m
b1111 y
b1111 |
b1111 ("
b1111 *"
0g
0i
0k
0a
0~
0)"
1z
0A
b0 P
b1 c
b101 Y
b1000000001000 8
b1000000001000 T
1U
b10001010001 (
b10001010001 :
b10001010001 p
b10001010001 +"
b1010001 #
b1010001 5
b1010001 X
b1010001 v
b10 *
b10 =
b10 s
b10 u
1G
1I
1K
b1111 )
b1111 ;
b1111 B
b1111 D
b1111 N
1M
b1111000 9
b1111000 S
0$
1,
#20
0,
#25
1r
0q
0e
0[
0U
b100000001000 8
b100000001000 T
b0 c
b100 Y
1$
0l
0j
b1001 9
b1001 S
b1 &
b1 7
b1 W
b1 d
0h
b101 %
b101 6
b101 V
b101 Z
b101 x
1\
b10101000000 (
b10101000000 :
b10101000000 p
b10101000000 +"
b1000000 #
b1000000 5
b1000000 X
b1000000 v
b11 *
b11 =
b11 s
b11 u
1,
#30
0,
#35
xe
xg
xi
xk
x[
x]
x_
xa
0r
1q
bx c
bx Y
b1000000001000 8
b1000000001000 T
1U
b101xxxxxxxx (
b101xxxxxxxx :
b101xxxxxxxx p
b101xxxxxxxx +"
bx #
bx 5
bx X
bx v
b10101000000 *
b10101000000 =
b10101000000 s
b10101000000 u
b1000 9
b1000 S
0$
1,
#40
0,
#45
0U
1$
xl
xj
xh
bx001 9
bx001 S
bx &
bx 7
bx W
bx d
xf
xb
x`
x^
bx (
bx :
bx p
bx +"
bx %
bx 6
bx V
bx Z
bx x
x\
b10101000001 *
b10101000001 =
b10101000001 s
b10101000001 u
1,
#50
0,
#55
1U
b10101000010 *
b10101000010 =
b10101000010 s
b10101000010 u
bx000 9
bx000 S
0$
1,
#60
0,
#65
0e
0g
0i
0k
0[
0]
1_
0a
0U
b0 c
b100 Y
bx001 9
bx001 S
1$
bx01000000 (
bx01000000 :
bx01000000 p
bx01000000 +"
b1000000 #
b1000000 5
b1000000 X
b1000000 v
b10101000011 *
b10101000011 =
b10101000011 s
b10101000011 u
1,
#70
0,
#75
1e
1g
1i
1k
1[
0_
1a
b1111 c
b1001 Y
1U
bx10011111 (
bx10011111 :
bx10011111 p
bx10011111 +"
b10011111 #
b10011111 5
b10011111 X
b10011111 v
b10101000100 *
b10101000100 =
b10101000100 s
b10101000100 u
bx000 9
bx000 S
0$
1,
#80
0,
#85
x""
b0x }
x<
xL
xJ
xH
xF
bx >
bx C
bx E
bx Q
bx {
b0xxxx R
bx !
bx 3
bx O
bx m
bx y
bx |
bx ("
bx *"
1~
1)"
0z
1A
b100 P
0e
0g
0i
0k
1]
1_
0U
b1011100100000 8
b1011100100000 T
b0 c
b1111 Y
1$
1l
1j
1h
b1111001 9
b1111001 S
b1111 &
b1111 7
b1111 W
b1111 d
1f
1b
0`
0^
b1001 %
b1001 6
b1001 V
b1001 Z
b1001 x
1\
b100111110000 (
b100111110000 :
b100111110000 p
b100111110000 +"
b11110000 #
b11110000 5
b11110000 X
b11110000 v
b10101000101 *
b10101000101 =
b10101000101 s
b10101000101 u
1,
#90
0,
#95
0[
0]
0~
0)"
1z
0A
b0 P
b1100 Y
b1000000001000 8
b1000000001000 T
1U
x"
b100111000000 (
b100111000000 :
b100111000000 p
b100111000000 +"
b11000000 #
b11000000 5
b11000000 X
b11000000 v
b10101000110 *
b10101000110 =
b10101000110 s
b10101000110 u
xG
xI
xK
bx )
bx ;
bx B
bx D
bx N
xM
b11110x0 9
b11110x0 S
0$
b0x !"
x#"
1,
#100
0,
#105
0_
0a
0U
b0 Y
1$
0l
0j
0h
b0x1 9
b0x1 S
b0 &
b0 7
b0 W
b0 d
0f
1`
b1100 %
b1100 6
b1100 V
b1100 Z
b1100 x
0\
b110000000000 (
b110000000000 :
b110000000000 p
b110000000000 +"
b0 #
b0 5
b0 X
b0 v
b10101000111 *
b10101000111 =
b10101000111 s
b10101000111 u
1,
#110
0,
#115
xe
xg
xi
xk
x[
x]
x_
xa
bx c
bx Y
1U
b1100xxxxxxxx (
b1100xxxxxxxx :
b1100xxxxxxxx p
b1100xxxxxxxx +"
bx #
bx 5
bx X
bx v
b10101001000 *
b10101001000 =
b10101001000 s
b10101001000 u
b0x0 9
b0x0 S
0$
1,
#120
0,
#125
0U
1$
xl
xj
xh
bx0x1 9
bx0x1 S
bx &
bx 7
bx W
bx d
xf
xb
x`
x^
bx (
bx :
bx p
bx +"
bx %
bx 6
bx V
bx Z
bx x
x\
b10101001001 *
b10101001001 =
b10101001001 s
b10101001001 u
1,
#130
0,
#135
1U
b10101001010 *
b10101001010 =
b10101001010 s
b10101001010 u
bx0x0 9
bx0x0 S
0$
1,
#140
0,
#145
0U
bx0x1 9
bx0x1 S
1$
b10101001011 *
b10101001011 =
b10101001011 s
b10101001011 u
1,
#150
0,
#155
1U
b10101001100 *
b10101001100 =
b10101001100 s
b10101001100 u
bx0x0 9
bx0x0 S
0$
1,
#160
0,
#165
0U
bx0x1 9
bx0x1 S
1$
b10101001101 *
b10101001101 =
b10101001101 s
b10101001101 u
1,
#170
0,
#175
1U
b10101001110 *
b10101001110 =
b10101001110 s
b10101001110 u
bx0x0 9
bx0x0 S
0$
1,
#180
0,
#185
0U
bx0x1 9
bx0x1 S
1$
b10101001111 *
b10101001111 =
b10101001111 s
b10101001111 u
1,
#190
0,
#195
1U
b10101010000 *
b10101010000 =
b10101010000 s
b10101010000 u
bx0x0 9
bx0x0 S
0$
1,
#200
0,
#205
0U
bx0x1 9
bx0x1 S
1$
b10101010001 *
b10101010001 =
b10101010001 s
b10101010001 u
1,
#210
0,
#215
1U
b10101010010 *
b10101010010 =
b10101010010 s
b10101010010 u
bx0x0 9
bx0x0 S
0$
1,
#220
0,
#225
0U
bx0x1 9
bx0x1 S
1$
b10101010011 *
b10101010011 =
b10101010011 s
b10101010011 u
1,
#230
0,
#235
1U
b10101010100 *
b10101010100 =
b10101010100 s
b10101010100 u
bx0x0 9
bx0x0 S
0$
1,
#236
b1110 -
b1110 4
b1110 '"
#240
0,
#245
0U
bx0x1 9
bx0x1 S
1$
b10101010101 *
b10101010101 =
b10101010101 s
b10101010101 u
1,
#250
0,
#255
1U
b10101010110 *
b10101010110 =
b10101010110 s
b10101010110 u
bx0x0 9
bx0x0 S
0$
1,
#260
0,
#265
0U
bx0x1 9
bx0x1 S
1$
b10101010111 *
b10101010111 =
b10101010111 s
b10101010111 u
1,
#270
0,
#275
1U
b10101011000 *
b10101011000 =
b10101011000 s
b10101011000 u
bx0x0 9
bx0x0 S
0$
1,
#280
0,
#285
0U
bx0x1 9
bx0x1 S
1$
b10101011001 *
b10101011001 =
b10101011001 s
b10101011001 u
1,
#290
0,
#295
1U
b10101011010 *
b10101011010 =
b10101011010 s
b10101011010 u
bx0x0 9
bx0x0 S
0$
1,
#300
0,
#305
0U
bx0x1 9
bx0x1 S
1$
b10101011011 *
b10101011011 =
b10101011011 s
b10101011011 u
1,
#310
0,
#315
1U
b10101011100 *
b10101011100 =
b10101011100 s
b10101011100 u
bx0x0 9
bx0x0 S
0$
1,
#320
0,
#325
0U
bx0x1 9
bx0x1 S
1$
b10101011101 *
b10101011101 =
b10101011101 s
b10101011101 u
1,
#330
0,
#335
1U
b10101011110 *
b10101011110 =
b10101011110 s
b10101011110 u
bx0x0 9
bx0x0 S
0$
1,
#340
0,
#345
0U
bx0x1 9
bx0x1 S
1$
b10101011111 *
b10101011111 =
b10101011111 s
b10101011111 u
1,
#350
0,
#355
1U
b10101100000 *
b10101100000 =
b10101100000 s
b10101100000 u
bx0x0 9
bx0x0 S
0$
1,
#360
0,
#365
0U
bx0x1 9
bx0x1 S
1$
b10101100001 *
b10101100001 =
b10101100001 s
b10101100001 u
1,
#370
0,
#375
1U
b10101100010 *
b10101100010 =
b10101100010 s
b10101100010 u
bx0x0 9
bx0x0 S
0$
1,
#380
0,
#385
0U
bx0x1 9
bx0x1 S
1$
b10101100011 *
b10101100011 =
b10101100011 s
b10101100011 u
1,
#390
0,
#395
1U
b10101100100 *
b10101100100 =
b10101100100 s
b10101100100 u
bx0x0 9
bx0x0 S
0$
1,
#400
0,
#405
0U
bx0x1 9
bx0x1 S
1$
b10101100101 *
b10101100101 =
b10101100101 s
b10101100101 u
1,
#410
0,
#415
1U
b10101100110 *
b10101100110 =
b10101100110 s
b10101100110 u
bx0x0 9
bx0x0 S
0$
1,
#420
0,
#425
0U
bx0x1 9
bx0x1 S
1$
b10101100111 *
b10101100111 =
b10101100111 s
b10101100111 u
1,
#430
0,
#435
1U
b10101101000 *
b10101101000 =
b10101101000 s
b10101101000 u
bx0x0 9
bx0x0 S
0$
1,
#440
0,
#445
0U
bx0x1 9
bx0x1 S
1$
b10101101001 *
b10101101001 =
b10101101001 s
b10101101001 u
1,
#450
0,
#455
1U
b10101101010 *
b10101101010 =
b10101101010 s
b10101101010 u
bx0x0 9
bx0x0 S
0$
1,
#460
0,
#465
0U
bx0x1 9
bx0x1 S
1$
b10101101011 *
b10101101011 =
b10101101011 s
b10101101011 u
1,
#470
0,
#475
1U
b10101101100 *
b10101101100 =
b10101101100 s
b10101101100 u
bx0x0 9
bx0x0 S
0$
1,
#480
0,
#485
0U
bx0x1 9
bx0x1 S
1$
b10101101101 *
b10101101101 =
b10101101101 s
b10101101101 u
1,
#490
0,
#495
1U
b10101101110 *
b10101101110 =
b10101101110 s
b10101101110 u
bx0x0 9
bx0x0 S
0$
1,
#500
0,
#505
0U
bx0x1 9
bx0x1 S
1$
b10101101111 *
b10101101111 =
b10101101111 s
b10101101111 u
1,
#510
0,
#515
1U
b10101110000 *
b10101110000 =
b10101110000 s
b10101110000 u
bx0x0 9
bx0x0 S
0$
1,
#520
0,
#525
0U
bx0x1 9
bx0x1 S
1$
b10101110001 *
b10101110001 =
b10101110001 s
b10101110001 u
1,
#530
0,
#535
1U
b10101110010 *
b10101110010 =
b10101110010 s
b10101110010 u
bx0x0 9
bx0x0 S
0$
1,
#540
0,
#545
0U
bx0x1 9
bx0x1 S
1$
b10101110011 *
b10101110011 =
b10101110011 s
b10101110011 u
1,
#550
0,
#555
1U
b10101110100 *
b10101110100 =
b10101110100 s
b10101110100 u
bx0x0 9
bx0x0 S
0$
1,
#560
0,
#565
0U
bx0x1 9
bx0x1 S
1$
b10101110101 *
b10101110101 =
b10101110101 s
b10101110101 u
1,
#570
0,
#575
1U
b10101110110 *
b10101110110 =
b10101110110 s
b10101110110 u
bx0x0 9
bx0x0 S
0$
1,
#580
0,
#585
0U
bx0x1 9
bx0x1 S
1$
b10101110111 *
b10101110111 =
b10101110111 s
b10101110111 u
1,
#590
0,
#595
1U
b10101111000 *
b10101111000 =
b10101111000 s
b10101111000 u
bx0x0 9
bx0x0 S
0$
1,
#600
0,
#605
0U
bx0x1 9
bx0x1 S
1$
b10101111001 *
b10101111001 =
b10101111001 s
b10101111001 u
1,
#610
0,
#615
1U
b10101111010 *
b10101111010 =
b10101111010 s
b10101111010 u
bx0x0 9
bx0x0 S
0$
1,
#620
0,
#625
0U
bx0x1 9
bx0x1 S
1$
b10101111011 *
b10101111011 =
b10101111011 s
b10101111011 u
1,
#630
0,
#635
1U
b10101111100 *
b10101111100 =
b10101111100 s
b10101111100 u
bx0x0 9
bx0x0 S
0$
1,
#640
0,
#645
0U
bx0x1 9
bx0x1 S
1$
b10101111101 *
b10101111101 =
b10101111101 s
b10101111101 u
1,
#650
0,
#655
1U
b10101111110 *
b10101111110 =
b10101111110 s
b10101111110 u
bx0x0 9
bx0x0 S
0$
1,
#660
0,
#665
0U
bx0x1 9
bx0x1 S
1$
b10101111111 *
b10101111111 =
b10101111111 s
b10101111111 u
1,
#670
0,
#675
1U
b10110000000 *
b10110000000 =
b10110000000 s
b10110000000 u
bx0x0 9
bx0x0 S
0$
1,
#680
0,
#685
0U
bx0x1 9
bx0x1 S
1$
b10110000001 *
b10110000001 =
b10110000001 s
b10110000001 u
1,
#690
0,
#695
1U
b10110000010 *
b10110000010 =
b10110000010 s
b10110000010 u
bx0x0 9
bx0x0 S
0$
1,
#700
0,
#705
0U
bx0x1 9
bx0x1 S
1$
b10110000011 *
b10110000011 =
b10110000011 s
b10110000011 u
1,
#710
0,
#715
1U
b10110000100 *
b10110000100 =
b10110000100 s
b10110000100 u
bx0x0 9
bx0x0 S
0$
1,
#720
0,
#725
0U
bx0x1 9
bx0x1 S
1$
b10110000101 *
b10110000101 =
b10110000101 s
b10110000101 u
1,
#730
0,
#735
1U
b10110000110 *
b10110000110 =
b10110000110 s
b10110000110 u
bx0x0 9
bx0x0 S
0$
1,
#740
0,
#745
0U
bx0x1 9
bx0x1 S
1$
b10110000111 *
b10110000111 =
b10110000111 s
b10110000111 u
1,
#750
0,
#755
1U
b10110001000 *
b10110001000 =
b10110001000 s
b10110001000 u
bx0x0 9
bx0x0 S
0$
1,
#760
0,
#765
0U
bx0x1 9
bx0x1 S
1$
b10110001001 *
b10110001001 =
b10110001001 s
b10110001001 u
1,
#770
0,
#775
1U
b10110001010 *
b10110001010 =
b10110001010 s
b10110001010 u
bx0x0 9
bx0x0 S
0$
1,
#780
0,
#785
0U
bx0x1 9
bx0x1 S
1$
b10110001011 *
b10110001011 =
b10110001011 s
b10110001011 u
1,
#790
0,
#795
1U
b10110001100 *
b10110001100 =
b10110001100 s
b10110001100 u
bx0x0 9
bx0x0 S
0$
1,
#800
0,
#805
0U
bx0x1 9
bx0x1 S
1$
b10110001101 *
b10110001101 =
b10110001101 s
b10110001101 u
1,
#810
0,
#815
1U
b10110001110 *
b10110001110 =
b10110001110 s
b10110001110 u
bx0x0 9
bx0x0 S
0$
1,
#820
0,
#825
0U
bx0x1 9
bx0x1 S
1$
b10110001111 *
b10110001111 =
b10110001111 s
b10110001111 u
1,
#830
0,
#835
1U
b10110010000 *
b10110010000 =
b10110010000 s
b10110010000 u
bx0x0 9
bx0x0 S
0$
1,
#840
0,
#845
0U
bx0x1 9
bx0x1 S
1$
b10110010001 *
b10110010001 =
b10110010001 s
b10110010001 u
1,
#850
0,
#855
1U
b10110010010 *
b10110010010 =
b10110010010 s
b10110010010 u
bx0x0 9
bx0x0 S
0$
1,
#860
0,
#865
0U
bx0x1 9
bx0x1 S
1$
b10110010011 *
b10110010011 =
b10110010011 s
b10110010011 u
1,
#870
0,
#875
1U
b10110010100 *
b10110010100 =
b10110010100 s
b10110010100 u
bx0x0 9
bx0x0 S
0$
1,
#880
0,
#885
0U
bx0x1 9
bx0x1 S
1$
b10110010101 *
b10110010101 =
b10110010101 s
b10110010101 u
1,
#890
0,
#895
1U
b10110010110 *
b10110010110 =
b10110010110 s
b10110010110 u
bx0x0 9
bx0x0 S
0$
1,
#900
0,
#905
0U
bx0x1 9
bx0x1 S
1$
b10110010111 *
b10110010111 =
b10110010111 s
b10110010111 u
1,
#910
0,
#915
1U
b10110011000 *
b10110011000 =
b10110011000 s
b10110011000 u
bx0x0 9
bx0x0 S
0$
1,
#920
0,
#925
0U
bx0x1 9
bx0x1 S
1$
b10110011001 *
b10110011001 =
b10110011001 s
b10110011001 u
1,
#930
0,
#935
1U
b10110011010 *
b10110011010 =
b10110011010 s
b10110011010 u
bx0x0 9
bx0x0 S
0$
1,
#940
0,
#945
0U
bx0x1 9
bx0x1 S
1$
b10110011011 *
b10110011011 =
b10110011011 s
b10110011011 u
1,
#950
0,
#955
1U
b10110011100 *
b10110011100 =
b10110011100 s
b10110011100 u
bx0x0 9
bx0x0 S
0$
1,
#960
0,
#965
0U
bx0x1 9
bx0x1 S
1$
b10110011101 *
b10110011101 =
b10110011101 s
b10110011101 u
1,
#970
0,
#975
1U
b10110011110 *
b10110011110 =
b10110011110 s
b10110011110 u
bx0x0 9
bx0x0 S
0$
1,
#980
0,
#985
0U
bx0x1 9
bx0x1 S
1$
b10110011111 *
b10110011111 =
b10110011111 s
b10110011111 u
1,
#990
0,
#995
1U
b10110100000 *
b10110100000 =
b10110100000 s
b10110100000 u
bx0x0 9
bx0x0 S
0$
1,
