uP_tb.vcd
$date
	Sun Nov 22 16:38:24 2020
$end
$version
	Icarus Verilog
$end
$timescale
	1ps
$end
$scope module testbench $end
$var wire 4 ! data_bus [3:0] $end
$var wire 1 " z_flag $end
$var wire 8 # program_byte [7:0] $end
$var wire 1 $ phase $end
$var wire 4 % oprnd [3:0] $end
$var wire 4 & instr [3:0] $end
$var wire 1 ' c_flag $end
$var wire 12 ( address_RAM [11:0] $end
$var wire 4 ) accu [3:0] $end
$var wire 12 * PC [11:0] $end
$var wire 4 + FF_out [3:0] $end
$var reg 1 , clock $end
$var reg 4 - pushbuttons [3:0] $end
$var reg 1 . reset $end
$var integer 32 / immediateDelay [31:0] $end
$var integer 32 0 jumpDelay [31:0] $end
$var integer 32 1 memoryDelay [31:0] $end
$var integer 32 2 nota [31:0] $end
$scope module uPmodule $end
$var wire 1 , clock $end
$var wire 4 3 data_bus [3:0] $end
$var wire 4 4 pushbuttons [3:0] $end
$var wire 1 . reset $end
$var wire 1 " z_flag $end
$var wire 8 5 program_byte [7:0] $end
$var wire 1 $ phase $end
$var wire 4 6 oprnd [3:0] $end
$var wire 4 7 instr [3:0] $end
$var wire 13 8 decode_out [12:0] $end
$var wire 7 9 decode_in [6:0] $end
$var wire 1 ' c_flag $end
$var wire 12 : address_RAM [11:0] $end
$var wire 4 ; accu [3:0] $end
$var wire 1 < ZERO $end
$var wire 12 = PC [11:0] $end
$var wire 4 > O_ALU [3:0] $end
$var wire 4 ? FF_out [3:0] $end
$var wire 1 @ C $end
$scope module ACCU7 $end
$var wire 1 , clock $end
$var wire 1 A enabled $end
$var wire 1 . reset $end
$var wire 4 B Q [3:0] $end
$var wire 4 C D [3:0] $end
$scope module F1 $end
$var wire 1 , clock $end
$var wire 1 A enabled $end
$var wire 1 . reset $end
$var wire 4 D Q [3:0] $end
$var wire 4 E D [3:0] $end
$scope module M3 $end
$var wire 1 F D $end
$var wire 1 , clock $end
$var wire 1 A enabled $end
$var wire 1 . reset $end
$var reg 1 G Q $end
$upscope $end
$scope module M4 $end
$var wire 1 H D $end
$var wire 1 , clock $end
$var wire 1 A enabled $end
$var wire 1 . reset $end
$var reg 1 I Q $end
$upscope $end
$scope module M5 $end
$var wire 1 J D $end
$var wire 1 , clock $end
$var wire 1 A enabled $end
$var wire 1 . reset $end
$var reg 1 K Q $end
$upscope $end
$scope module M7 $end
$var wire 1 L D $end
$var wire 1 , clock $end
$var wire 1 A enabled $end
$var wire 1 . reset $end
$var reg 1 M Q $end
$upscope $end
$upscope $end
$upscope $end
$scope module ALU6 $end
$var wire 4 N A [3:0] $end
$var wire 4 O B [3:0] $end
$var wire 3 P F [2:0] $end
$var wire 1 < FZ $end
$var wire 4 Q Y [3:0] $end
$var wire 1 @ FC $end
$var reg 5 R S [4:0] $end
$upscope $end
$scope module Decode1 $end
$var wire 7 S D [6:0] $end
$var reg 13 T Q [12:0] $end
$upscope $end
$scope module Fetch1 $end
$var wire 1 , clock $end
$var wire 1 U enabled $end
$var wire 1 . reset $end
$var wire 4 V op [3:0] $end
$var wire 4 W ins [3:0] $end
$var wire 8 X D [7:0] $end
$scope module m1 $end
$var wire 4 Y D [3:0] $end
$var wire 1 , clock $end
$var wire 1 U enabled $end
$var wire 1 . reset $end
$var wire 4 Z Q [3:0] $end
$scope module M3 $end
$var wire 1 [ D $end
$var wire 1 , clock $end
$var wire 1 U enabled $end
$var wire 1 . reset $end
$var reg 1 \ Q $end
$upscope $end
$scope module M4 $end
$var wire 1 ] D $end
$var wire 1 , clock $end
$var wire 1 U enabled $end
$var wire 1 . reset $end
$var reg 1 ^ Q $end
$upscope $end
$scope module M5 $end
$var wire 1 _ D $end
$var wire 1 , clock $end
$var wire 1 U enabled $end
$var wire 1 . reset $end
$var reg 1 ` Q $end
$upscope $end
$scope module M7 $end
$var wire 1 a D $end
$var wire 1 , clock $end
$var wire 1 U enabled $end
$var wire 1 . reset $end
$var reg 1 b Q $end
$upscope $end
$upscope $end
$scope module m9 $end
$var wire 4 c D [3:0] $end
$var wire 1 , clock $end
$var wire 1 U enabled $end
$var wire 1 . reset $end
$var wire 4 d Q [3:0] $end
$scope module M3 $end
$var wire 1 e D $end
$var wire 1 , clock $end
$var wire 1 U enabled $end
$var wire 1 . reset $end
$var reg 1 f Q $end
$upscope $end
$scope module M4 $end
$var wire 1 g D $end
$var wire 1 , clock $end
$var wire 1 U enabled $end
$var wire 1 . reset $end
$var reg 1 h Q $end
$upscope $end
$scope module M5 $end
$var wire 1 i D $end
$var wire 1 , clock $end
$var wire 1 U enabled $end
$var wire 1 . reset $end
$var reg 1 j Q $end
$upscope $end
$scope module M7 $end
$var wire 1 k D $end
$var wire 1 , clock $end
$var wire 1 U enabled $end
$var wire 1 . reset $end
$var reg 1 l Q $end
$upscope $end
$upscope $end
$upscope $end
$scope module Out0 $end
$var wire 4 m D [3:0] $end
$var wire 1 , clock $end
$var wire 1 n enabled $end
$var wire 1 . reset $end
$var reg 4 o Q [3:0] $end
$upscope $end
$scope module PC1 $end
$var wire 12 p D [11:0] $end
$var wire 1 , clock $end
$var wire 1 q enabled $end
$var wire 1 r load $end
$var wire 1 . reset $end
$var reg 12 s Q [11:0] $end
$upscope $end
$scope module PHase9 $end
$var wire 1 , clock $end
$var wire 1 t enabled $end
$var wire 1 . reset $end
$var reg 1 $ Q $end
$upscope $end
$scope module ROM1 $end
$var wire 12 u M [11:0] $end
$var wire 8 v O [7:0] $end
$upscope $end
$scope module bus_1 $end
$var wire 1 w B $end
$var wire 4 x D [3:0] $end
$var wire 4 y Q [3:0] $end
$upscope $end
$scope module bus_2 $end
$var wire 1 z B $end
$var wire 4 { D [3:0] $end
$var wire 4 | Q [3:0] $end
$upscope $end
$scope module f1 $end
$var wire 2 } D [1:0] $end
$var wire 1 , clock $end
$var wire 1 ~ enabled $end
$var wire 1 . reset $end
$var wire 2 !" Q [1:0] $end
$scope module m6 $end
$var wire 1 "" D $end
$var wire 1 , clock $end
$var wire 1 ~ enabled $end
$var wire 1 . reset $end
$var reg 1 #" Q $end
$upscope $end
$scope module m8 $end
$var wire 1 $" D $end
$var wire 1 , clock $end
$var wire 1 ~ enabled $end
$var wire 1 . reset $end
$var reg 1 %" Q $end
$upscope $end
$upscope $end
$scope module in $end
$var wire 1 &" B $end
$var wire 4 '" D [3:0] $end
$var wire 4 (" Q [3:0] $end
$upscope $end
$scope module ram1 $end
$var wire 1 )" cs $end
$var wire 4 *" data [3:0] $end
$var wire 12 +" dir [11:0] $end
$var wire 1 ," we $end
$var reg 4 -" dataO [3:0] $end
$upscope $end
$upscope $end
$upscope $end
$enddefinitions $end
#0
$dumpvars
bx -"
x,"
bx +"
bx *"
x)"
bx ("
b110 '"
x&"
x%"
x$"
x#"
x""
bx !"
x~
bx }
bx |
bx {
xz
bx y
bx x
xw
bx v
bx u
1t
bx s
xr
xq
bx p
bx o
xn
bx m
xl
xk
xj
xi
xh
xg
xf
xe
bx d
bx c
xb
xa
x`
x_
x^
x]
x\
x[
bx Z
bx Y
bx X
bx W
bx V
xU
bx T
bx S
bx R
bx Q
bx P
bx O
bx N
xM
xL
xK
xJ
xI
xH
xG
xF
bx E
bx D
bx C
bx B
xA
x@
bx ?
bx >
bx =
x<
bx ;
bx :
bx 9
bx 8
bx 7
bx 6
bx 5
b110 4
bx 3
b0 2
b100010100 1
b1010010000 0
b10000 /
0.
b110 -
0,
bx +
bx *
bx )
bx (
x'
bx &
bx %
x$
bx #
x"
bx !
$end
#2
1""
1<
b0 !
b0 3
b0 O
b0 m
b0 y
b0 |
b0 ("
b0 *"
0L
0J
0H
0F
0$"
b0 >
b0 C
b0 E
b0 Q
b0 {
b1 }
0@
b0 R
1e
1g
1i
1k
0[
0]
1_
0a
0~
0,"
0)"
0&"
0n
1z
0A
b0 P
0w
0r
1q
b1111 c
b100 Y
b1000000001000 8
b1000000001000 T
1U
0"
0'
b1001111 #
b1001111 5
b1001111 X
b1001111 v
b0 *
b0 =
b0 s
b0 u
0\
0^
0`
b0 &
b0 7
b0 V
b0 Z
0b
0f
0h
0j
b1001111 (
b1001111 :
b1001111 p
b1001111 +"
b0 %
b0 6
b0 W
b0 d
b0 x
0l
0G
0I
0K
b0 )
b0 ;
b0 B
b0 D
b0 N
0M
b0 9
b0 S
0$
b0 +
b0 ?
b0 o
0#"
b0 !"
0%"
1.
#3
0.
#5
0""
b0 }
0<
1L
1J
1H
1F
b1111 >
b1111 C
b1111 E
b1111 Q
b1111 {
b1111 R
b1111 !
b1111 3
b1111 O
b1111 m
b1111 y
b1111 |
b1111 ("
b1111 *"
1~
0z
1A
b10 P
1w
0q
1[
1a
0U
b11010000010 8
b11010000010 T
b1101 Y
1$
1l
1j
1h
b1111 %
b1111 6
b1111 W
b1111 d
b1111 x
1f
b100001 9
b100001 S
b100 &
b100 7
b100 V
b100 Z
1`
b111111011111 (
b111111011111 :
b111111011111 p
b111111011111 +"
b11011111 #
b11011111 5
b11011111 X
b11011111 v
b1 *
b1 =
b1 s
b1 u
1,
#10
0,
#15
b1111 !
b1111 3
b1111 O
b1111 m
b1111 y
b1111 |
b1111 ("
b1111 *"
0~
1z
0A
b0 P
0w
1q
b1000000001000 8
b1000000001000 T
1U
1G
1I
1K
b1111 )
b1111 ;
b1111 B
b1111 D
b1111 N
1M
b100000 9
b100000 S
0$
1,
#16
b1000110 2
#20
0,
#25
1n
0q
0g
0i
0k
0a
0U
b1001 8
b1001 T
b1 c
b101 Y
1$
1b
b1101001 9
b1101001 S
b1101 &
b1101 7
b1101 V
b1101 Z
1\
b111101010001 (
b111101010001 :
b111101010001 p
b111101010001 +"
b1010001 #
b1010001 5
b1010001 X
b1010001 v
b10 *
b10 =
b10 s
b10 u
1,
#30
0,
#35
0n
1q
b1000000001000 8
b1000000001000 T
1U
b1101000 9
b1101000 S
0$
b1111 +
b1111 ?
b1111 o
1,
#36
b1100111 2
#40
0,
#45
0L
0F
b110 >
b110 C
b110 E
b110 Q
b110 {
b110 R
b110 !
b110 3
b110 O
b110 m
b110 y
b110 |
b110 ("
b110 *"
1~
1&"
0z
1A
b10 P
0q
0e
0[
0U
b11010000100 8
b11010000100 T
b0 c
b100 Y
1$
0l
0j
b1 %
b1 6
b1 W
b1 d
b1 x
0h
b101001 9
b101001 S
b101 &
b101 7
b101 V
b101 Z
0b
b101000000 (
b101000000 :
b101000000 p
b101000000 +"
b1000000 #
b1000000 5
b1000000 X
b1000000 v
b11 *
b11 =
b11 s
b11 u
1,
#50
0,
#55
0~
0&"
1z
0A
b0 P
1q
b1000000001000 8
b1000000001000 T
1U
0G
b110 )
b110 ;
b110 B
b110 D
b110 N
0M
b101000 9
b101000 S
0$
1,
#56
b10001000 2
#60
0,
#65
1""
b1 }
1<
0J
0H
b0 >
b0 C
b0 E
b0 Q
b0 {
b0 R
b0 !
b0 3
b0 O
b0 m
b0 y
b0 |
b0 ("
b0 *"
1~
0z
1A
b10 P
1w
0q
1e
1g
1i
1k
0U
b11010000010 8
b11010000010 T
b1111 c
1$
b0 %
b0 6
b0 W
b0 d
b0 x
0f
b100001 9
b100001 S
b100 &
b100 7
b100 V
b100 Z
0\
b1001111 (
b1001111 :
b1001111 p
b1001111 +"
b1001111 #
b1001111 5
b1001111 X
b1001111 v
b100 *
b100 =
b100 s
b100 u
1,
#70
0,
#75
b0 !
b0 3
b0 O
b0 m
b0 y
b0 |
b0 ("
b0 *"
0~
1z
0A
b0 P
0w
1q
b1000000001000 8
b1000000001000 T
1U
1"
0I
b0 )
b0 ;
b0 B
b0 D
b0 N
0K
b100010 9
b100010 S
0$
b1 !"
1#"
1,
#80
0,
#85
0""
b0 }
0<
1L
1J
1H
1F
b1111 >
b1111 C
b1111 E
b1111 Q
b1111 {
b1111 R
b1111 !
b1111 3
b1111 O
b1111 m
b1111 y
b1111 |
b1111 ("
b1111 *"
1~
0z
1A
b10 P
1w
0q
0e
0i
1]
0_
1a
b11010000010 8
b11010000010 T
0U
b1010 c
b1010 Y
b100011 9
b100011 S
1$
1l
1j
1h
b1111 %
b1111 6
b1111 W
b1111 d
b1111 x
1f
b111110101010 (
b111110101010 :
b111110101010 p
b111110101010 +"
b10101010 #
b10101010 5
b10101010 X
b10101010 v
b101 *
b101 =
b101 s
b101 u
1,
#90
0,
#95
b1111 !
b1111 3
b1111 O
b1111 m
b1111 y
b1111 |
b1111 ("
b1111 *"
0~
1z
0A
b0 P
0w
1q
b1000000001000 8
b1000000001000 T
1U
0"
1G
1I
1K
b1111 )
b1111 ;
b1111 B
b1111 D
b1111 N
1M
b100000 9
b100000 S
0$
b0 !"
0#"
1,
#100
0,
#105
0J
0H
1$"
b1001 >
b1001 C
b1001 E
b1001 Q
b1001 {
b10 }
1@
b11001 R
b1010 !
b1010 3
b1010 O
b1010 m
b1010 y
b1010 |
b1010 ("
b1010 *"
1~
0z
1A
b11 P
1w
0q
0g
0a
0U
b11011000010 8
b11011000010 T
b1000 c
b10 Y
1$
0j
b1010 %
b1010 6
b1010 W
b1010 d
b1010 x
0f
1b
0`
b1010001 9
b1010001 S
b1010 &
b1010 7
b1010 V
b1010 Z
1^
b101000101000 (
b101000101000 :
b101000101000 p
b101000101000 +"
b101000 #
b101000 5
b101000 X
b101000 v
b110 *
b110 =
b110 s
b110 u
1,
#110
0,
#115
0$"
b0 }
0@
b1001 R
b1001 !
b1001 3
b1001 O
b1001 m
b1001 y
b1001 |
b1001 ("
b1001 *"
0~
1z
0A
b0 P
0w
1q
b1000000001000 8
b1000000001000 T
1U
1'
0I
b1001 )
b1001 ;
b1001 B
b1001 D
b1001 N
0K
b1010100 9
b1010100 S
0$
b10 !"
1%"
1,
#116
b10101001 2
#120
0,
#125
0L
b1 >
b1 C
b1 E
b1 Q
b1 {
b1 R
b1000 !
b1000 3
b1000 O
b1000 m
b1000 y
b1000 |
b1000 ("
b1000 *"
1~
0z
b1 P
1w
0q
1g
0]
1_
0U
b1001000010 8
b1001000010 T
b1010 c
b100 Y
1$
b1000 %
b1000 6
b1000 W
b1000 d
b1000 x
0h
b10101 9
b10101 S
b10 &
b10 7
b10 V
b10 Z
0b
b100001001010 (
b100001001010 :
b100001001010 p
b100001001010 +"
b1001010 #
b1001010 5
b1001010 X
b1001010 v
b111 *
b111 =
b111 s
b111 u
1,
#130
0,
#135
1L
b1001 >
b1001 C
b1001 E
b1001 Q
b1001 {
b1001 R
b1001 !
b1001 3
b1001 O
b1001 m
b1001 y
b1001 |
b1001 ("
b1001 *"
0~
1z
b0 P
0w
1q
b1000000001000 8
b1000000001000 T
1U
0'
b10000 9
b10000 S
0$
b0 !"
0%"
1,
#136
b11001010 2
#140
0,
#145
1H
0F
b1010 >
b1010 C
b1010 E
b1010 Q
b1010 {
b1010 R
b1010 !
b1010 3
b1010 O
b1010 m
b1010 y
b1010 |
b1010 ("
b1010 *"
1~
0z
1A
b10 P
1w
0q
0g
1i
1]
0_
0U
b11010000010 8
b11010000010 T
b1100 c
b10 Y
1$
b1010 %
b1010 6
b1010 W
b1010 d
b1010 x
1h
1`
b100001 9
b100001 S
b100 &
b100 7
b100 V
b100 Z
0^
b101000101100 (
b101000101100 :
b101000101100 p
b101000101100 +"
b101100 #
b101100 5
b101100 X
b101100 v
b1000 *
b1000 =
b1000 s
b1000 u
1,
#150
0,
#155
b1010 !
b1010 3
b1010 O
b1010 m
b1010 y
b1010 |
b1010 ("
b1010 *"
0~
1z
0A
b0 P
0w
1q
b1000000001000 8
b1000000001000 T
1U
0G
b1010 )
b1010 ;
b1010 B
b1010 D
b1010 N
1I
b100000 9
b100000 S
0$
1,
#160
0,
#165
1J
1$"
b1110 >
b1110 C
b1110 E
b1110 Q
b1110 {
b10 }
1@
b11110 R
b1100 !
b1100 3
b1100 O
b1100 m
b1100 y
b1100 |
b1100 ("
b1100 *"
1~
0z
b1 P
1w
0q
1e
0i
0k
1a
0U
b1001000010 8
b1001000010 T
b1 c
b1010 Y
1$
1j
b1100 %
b1100 6
b1100 W
b1100 d
b1100 x
0h
0`
b10001 9
b10001 S
b10 &
b10 7
b10 V
b10 Z
1^
b110010100001 (
b110010100001 :
b110010100001 p
b110010100001 +"
b10100001 #
b10100001 5
b10100001 X
b10100001 v
b1001 *
b1001 =
b1001 s
b1001 u
1,
#170
0,
#175
0J
0$"
b1010 >
b1010 C
b1010 E
b1010 Q
b1010 {
b0 }
0@
b1010 R
b1010 !
b1010 3
b1010 O
b1010 m
b1010 y
b1010 |
b1010 ("
b1010 *"
0~
1z
b0 P
0w
1q
b1000000001000 8
b1000000001000 T
1U
1'
b10100 9
b10100 S
0$
b10 !"
1%"
1,
#176
b11101011 2
#180
0,
#185
1F
b1011 >
b1011 C
b1011 E
b1011 Q
b1011 {
b1011 R
b1 !
b1 3
b1 O
b1 m
b1 y
b1 |
b1 ("
b1 *"
1~
0z
1A
b11 P
1w
0q
1g
1k
1_
0U
b11011000010 8
b11011000010 T
b1011 c
b1110 Y
1$
0l
0j
b1 %
b1 6
b1 W
b1 d
b1 x
1f
b1010101 9
b1010101 S
b1010 &
b1010 7
b1010 V
b1010 Z
1b
b111101011 (
b111101011 :
b111101011 p
b111101011 +"
b11101011 #
b11101011 5
b11101011 X
b11101011 v
b1010 *
b1010 =
b1010 s
b1010 u
1,
#190
0,
#195
b1011 R
b1011 !
b1011 3
b1011 O
b1011 m
b1011 y
b1011 |
b1011 ("
b1011 *"
0~
1z
0A
b0 P
0w
1q
b1000000001000 8
b1000000001000 T
1U
0'
b1011 )
b1011 ;
b1011 B
b1011 D
b1011 N
1G
b1010000 9
b1010000 S
0$
b0 !"
0%"
1,
#196
b100001100 2
#200
0,
#205
0L
1J
0H
0F
b100 >
b100 C
b100 E
b100 Q
b100 {
b100 R
1~
0z
1A
b100 P
1w
0q
0e
0g
0k
1[
0]
0U
b11100000010 8
b11100000010 T
b0 c
b1101 Y
1$
1l
b1011 %
b1011 6
b1011 W
b1011 d
b1011 x
1h
b1110001 9
b1110001 S
b1110 &
b1110 7
b1110 V
b1110 Z
1`
b101111010000 (
b101111010000 :
b101111010000 p
b101111010000 +"
b11010000 #
b11010000 5
b11010000 X
b11010000 v
b1011 *
b1011 =
b1011 s
b1011 u
1,
#210
0,
#215
b100 R
b100 !
b100 3
b100 O
b100 m
b100 y
b100 |
b100 ("
b100 *"
0~
1z
0A
b0 P
0w
1q
b1000000001000 8
b1000000001000 T
1U
0G
0I
1K
b100 )
b100 ;
b100 B
b100 D
b100 N
0M
b1110000 9
b1110000 S
0$
1,
#216
b101001110 2
#220
0,
#225
1n
0q
0a
0U
b1001 8
b1001 T
b101 Y
1$
0l
0h
b0 %
b0 6
b0 W
b0 d
b0 x
0f
0^
b1101001 9
b1101001 S
b1101 &
b1101 7
b1101 V
b1101 Z
1\
b1010000 (
b1010000 :
b1010000 p
b1010000 +"
b1010000 #
b1010000 5
b1010000 X
b1010000 v
b1100 *
b1100 =
b1100 s
b1100 u
1,
#230
0,
#235
0n
1q
b1000000001000 8
b1000000001000 T
1U
b1101000 9
b1101000 S
0$
b100 +
b100 ?
b100 o
1,
#236
b1110 -
b1110 4
b1110 '"
b101101111 2
#240
0,
#245
1L
1H
b1110 >
b1110 C
b1110 E
b1110 Q
b1110 {
b1110 R
b1110 !
b1110 3
b1110 O
b1110 m
b1110 y
b1110 |
b1110 ("
b1110 *"
1~
1&"
0z
1A
b10 P
0q
1]
0U
b11010000100 8
b11010000100 T
b111 Y
1$
b101001 9
b101001 S
b101 &
b101 7
b101 V
b101 Z
0b
b1110000 (
b1110000 :
b1110000 p
b1110000 +"
b1110000 #
b1110000 5
b1110000 X
b1110000 v
b1101 *
b1101 =
b1101 s
b1101 u
1,
#250
0,
#255
0~
0&"
1z
0A
b0 P
1q
b1000000001000 8
b1000000001000 T
1U
1I
b1110 )
b1110 ;
b1110 B
b1110 D
b1110 N
1M
b101000 9
b101000 S
0$
1,
#256
b110010000 2
#260
0,
#265
1,"
1)"
0[
0]
0_
0U
b1000000111000 8
b1000000111000 T
b0 Y
1$
b111001 9
b111001 S
b111 &
b111 7
b111 V
b111 Z
1^
b0 (
b0 :
b0 p
b0 +"
b0 #
b0 5
b0 X
b0 v
b1110 *
b1110 =
b1110 s
b1110 u
1,
#270
0,
#275
1e
1g
1i
1k
1_
0,"
0)"
b1111 c
b100 Y
b1000000001000 8
b1000000001000 T
1U
b1001111 (
b1001111 :
b1001111 p
b1001111 +"
b1001111 #
b1001111 5
b1001111 X
b1001111 v
b1111 *
b1111 =
b1111 s
b1111 u
b111000 9
b111000 S
0$
1,
#280
0,
#285
1F
b1111 >
b1111 C
b1111 E
b1111 Q
b1111 {
b1111 R
b1111 !
b1111 3
b1111 O
b1111 m
b1111 y
b1111 |
b1111 ("
b1111 *"
1~
0z
1A
b10 P
1w
0q
0g
0i
0k
1[
1]
0U
b11010000010 8
b11010000010 T
b1 c
b111 Y
1$
1l
1j
1h
b1111 %
b1111 6
b1111 W
b1111 d
b1111 x
1f
0^
b100001 9
b100001 S
b100 &
b100 7
b100 V
b100 Z
0\
b111101110001 (
b111101110001 :
b111101110001 p
b111101110001 +"
b1110001 #
b1110001 5
b1110001 X
b1110001 v
b10000 *
b10000 =
b10000 s
b10000 u
1,
#290
0,
#295
b1111 !
b1111 3
b1111 O
b1111 m
b1111 y
b1111 |
b1111 ("
b1111 *"
0~
1z
0A
b0 P
0w
1q
b1000000001000 8
b1000000001000 T
1U
b1111 )
b1111 ;
b1111 B
b1111 D
b1111 N
1G
b100000 9
b100000 S
0$
1,
#300
0,
#305
1,"
1)"
0]
0_
0U
b1000000111000 8
b1000000111000 T
b1 Y
1$
0l
0j
b1 %
b1 6
b1 W
b1 d
b1 x
0h
1^
b111001 9
b111001 S
b111 &
b111 7
b111 V
b111 Z
1\
b100010001 (
b100010001 :
b100010001 p
b100010001 +"
b10001 #
b10001 5
b10001 X
b10001 v
b10001 *
b10001 =
b10001 s
b10001 u
1,
#310
0,
#315
0e
1g
1k
0[
1_
0,"
0)"
b1010 c
b100 Y
b1000000001000 8
b1000000001000 T
1U
b101001010 (
b101001010 :
b101001010 p
b101001010 +"
b1001010 #
b1001010 5
b1001010 X
b1001010 v
b10010 *
b10010 =
b10010 s
b10010 u
b111000 9
b111000 S
0$
1,
#320
0,
#325
0J
0F
b1010 >
b1010 C
b1010 E
b1010 Q
b1010 {
b1010 R
b1010 !
b1010 3
b1010 O
b1010 m
b1010 y
b1010 |
b1010 ("
b1010 *"
1~
0z
1A
b10 P
1w
0q
0k
1[
1]
0U
b11010000010 8
b11010000010 T
b10 c
b111 Y
1$
1l
1h
b1010 %
b1010 6
b1010 W
b1010 d
b1010 x
0f
0^
b100001 9
b100001 S
b100 &
b100 7
b100 V
b100 Z
0\
b101001110010 (
b101001110010 :
b101001110010 p
b101001110010 +"
b1110010 #
b1110010 5
b1110010 X
b1110010 v
b10011 *
b10011 =
b10011 s
b10011 u
1,
#330
0,
#335
b1010 !
b1010 3
b1010 O
b1010 m
b1010 y
b1010 |
b1010 ("
b1010 *"
0~
1z
0A
b0 P
0w
1q
b1000000001000 8
b1000000001000 T
1U
0G
b1010 )
b1010 ;
b1010 B
b1010 D
b1010 N
0K
b100000 9
b100000 S
0$
1,
#340
0,
#345
1,"
1)"
0[
0_
0U
b1000000111000 8
b1000000111000 T
b10 Y
1$
b10 %
b10 6
b10 W
b10 d
b10 x
0l
1^
b111001 9
b111001 S
b111 &
b111 7
b111 V
b111 Z
1\
b1000100010 (
b1000100010 :
b1000100010 p
b1000100010 +"
b100010 #
b100010 5
b100010 X
b100010 v
b10100 *
b10100 =
b10100 s
b10100 u
1,
#350
0,
#355
1e
0g
0]
1_
0,"
0)"
b1 c
b100 Y
b1000000001000 8
b1000000001000 T
1U
b1001000001 (
b1001000001 :
b1001000001 p
b1001000001 +"
b1000001 #
b1000001 5
b1000001 X
b1000001 v
b10101 *
b10101 =
b10101 s
b10101 u
b111000 9
b111000 S
0$
1,
#360
0,
#365
0L
0H
1F
b1 >
b1 C
b1 E
b1 Q
b1 {
b1 R
b1 !
b1 3
b1 O
b1 m
b1 y
b1 |
b1 ("
b1 *"
1~
0z
1A
b10 P
1w
0q
1g
1[
1]
0U
b11010000010 8
b11010000010 T
b11 c
b111 Y
1$
0h
b1 %
b1 6
b1 W
b1 d
b1 x
1f
0^
b100001 9
b100001 S
b100 &
b100 7
b100 V
b100 Z
0\
b101110011 (
b101110011 :
b101110011 p
b101110011 +"
b1110011 #
b1110011 5
b1110011 X
b1110011 v
b10110 *
b10110 =
b10110 s
b10110 u
1,
#370
0,
#375
b1 !
b1 3
b1 O
b1 m
b1 y
b1 |
b1 ("
b1 *"
0~
1z
0A
b0 P
0w
1q
b1000000001000 8
b1000000001000 T
1U
1G
0I
b1 )
b1 ;
b1 B
b1 D
b1 N
0M
b100000 9
b100000 S
0$
1,
#380
0,
#385
1,"
1)"
0_
0U
b1000000111000 8
b1000000111000 T
b11 Y
1$
b11 %
b11 6
b11 W
b11 d
b11 x
1h
1^
b111001 9
b111001 S
b111 &
b111 7
b111 V
b111 Z
1\
b1100110011 (
b1100110011 :
b1100110011 p
b1100110011 +"
b110011 #
b110011 5
b110011 X
b110011 v
b10111 *
b10111 =
b10111 s
b10111 u
1,
#390
0,
#395
0e
0g
0[
1_
0,"
0)"
b0 c
b110 Y
b1000000001000 8
b1000000001000 T
1U
b1101100000 (
b1101100000 :
b1101100000 p
b1101100000 +"
b1100000 #
b1100000 5
b1100000 X
b1100000 v
b11000 *
b11000 =
b11000 s
b11000 u
b111000 9
b111000 S
0$
1,
#400
0,
#405
0""
b0 }
0<
1L
1J
1H
0F
b1110 >
b1110 C
b1110 E
b1110 Q
b1110 {
b1110 R
b1110 -"
b1110 !
b1110 3
b1110 O
b1110 m
b1110 y
b1110 |
b1110 ("
b1110 *"
1~
1)"
0z
1A
b10 P
0]
0_
0U
b1011010100000 8
b1011010100000 T
b0 Y
1$
0h
b0 %
b0 6
b0 W
b0 d
b0 x
0f
b110001 9
b110001 S
b110 &
b110 7
b110 V
b110 Z
0\
b0 (
b0 :
b0 p
b0 +"
b0 #
b0 5
b0 X
b0 v
b11001 *
b11001 =
b11001 s
b11001 u
1,
#410
0,
#415
b1110 !
b1110 3
b1110 O
b1110 m
b1110 y
b1110 |
b1110 ("
b1110 *"
1e
1]
1_
0~
0)"
1z
0A
b0 P
b1 c
b110 Y
bx -"
b1000000001000 8
b1000000001000 T
1U
b1100001 (
b1100001 :
b1100001 p
b1100001 +"
b1100001 #
b1100001 5
b1100001 X
b1100001 v
b11010 *
b11010 =
b11010 s
b11010 u
0G
1I
1K
b1110 )
b1110 ;
b1110 B
b1110 D
b1110 N
1M
b110000 9
b110000 S
0$
1,
#420
0,
#425
1F
b1111 >
b1111 C
b1111 E
b1111 Q
b1111 {
b1111 R
b1111 -"
b1111 !
b1111 3
b1111 O
b1111 m
b1111 y
b1111 |
b1111 ("
b1111 *"
1~
1)"
0z
1A
b10 P
1[
0]
0_
b1011010100000 8
b1011010100000 T
0U
b1 Y
b110001 9
b110001 S
1$
b1 %
b1 6
b1 W
b1 d
b1 x
1f
b100010001 (
b100010001 :
b100010001 p
b100010001 +"
b10001 #
b10001 5
b10001 X
b10001 v
b11011 *
b11011 =
b11011 s
b11011 u
1,
#430
0,
#435
b1111 !
b1111 3
b1111 O
b1111 m
b1111 y
b1111 |
b1111 ("
b1111 *"
0e
1g
0[
1]
1_
0~
0)"
1z
0A
b0 P
b10 c
b110 Y
bx -"
b1000000001000 8
b1000000001000 T
1U
b101100010 (
b101100010 :
b101100010 p
b101100010 +"
b1100010 #
b1100010 5
b1100010 X
b1100010 v
b11100 *
b11100 =
b11100 s
b11100 u
b1111 )
b1111 ;
b1111 B
b1111 D
b1111 N
1G
b110000 9
b110000 S
0$
1,
#440
0,
#445
0J
0F
b1010 >
b1010 C
b1010 E
b1010 Q
b1010 {
b1010 R
b1010 -"
b1010 !
b1010 3
b1010 O
b1010 m
b1010 y
b1010 |
b1010 ("
b1010 *"
1~
1)"
0z
1A
b10 P
0_
b1011010100000 8
b1011010100000 T
0U
b10 Y
b110001 9
b110001 S
1$
1h
b10 %
b10 6
b10 W
b10 d
b10 x
0f
b1000100010 (
b1000100010 :
b1000100010 p
b1000100010 +"
b100010 #
b100010 5
b100010 X
b100010 v
b11101 *
b11101 =
b11101 s
b11101 u
1,
#450
0,
#455
b1010 !
b1010 3
b1010 O
b1010 m
b1010 y
b1010 |
b1010 ("
b1010 *"
1e
1_
0~
0)"
1z
0A
b0 P
b11 c
b110 Y
bx -"
b1000000001000 8
b1000000001000 T
1U
b1001100011 (
b1001100011 :
b1001100011 p
b1001100011 +"
b1100011 #
b1100011 5
b1100011 X
b1100011 v
b11110 *
b11110 =
b11110 s
b11110 u
0G
b1010 )
b1010 ;
b1010 B
b1010 D
b1010 N
0K
b110000 9
b110000 S
0$
1,
#460
0,
#465
0L
0H
1F
b1 >
b1 C
b1 E
b1 Q
b1 {
b1 R
b1 -"
b1 !
b1 3
b1 O
b1 m
b1 y
b1 |
b1 ("
b1 *"
1~
1)"
0z
1A
b10 P
1[
0_
b1011010100000 8
b1011010100000 T
0U
b11 Y
b110001 9
b110001 S
1$
b11 %
b11 6
b11 W
b11 d
b11 x
1f
b1100110011 (
b1100110011 :
b1100110011 p
b1100110011 +"
b110011 #
b110011 5
b110011 X
b110011 v
b11111 *
b11111 =
b11111 s
b11111 u
1,
#470
0,
