uP_tb.vcd
$date
	Sat Nov 21 23:21:15 2020
$end
$version
	Icarus Verilog
$end
$timescale
	1ps
$end
$scope module testbench $end
$var wire 4 ! data_bus [3:0] $end
$var wire 1 " z_flag $end
$var wire 8 # program_byte [7:0] $end
$var wire 1 $ phase $end
$var wire 4 % oprnd [3:0] $end
$var wire 4 & instr [3:0] $end
$var wire 1 ' c_flag $end
$var wire 12 ( address_RAM [11:0] $end
$var wire 4 ) accu [3:0] $end
$var wire 12 * PC [11:0] $end
$var wire 4 + FF_out [3:0] $end
$var reg 1 , clock $end
$var reg 4 - pushbuttons [3:0] $end
$var reg 1 . reset $end
$var integer 32 / immediateDelay [31:0] $end
$var integer 32 0 jumpDelay [31:0] $end
$var integer 32 1 memoryDelay [31:0] $end
$var integer 32 2 nota [31:0] $end
$scope module uPmodule $end
$var wire 1 , clock $end
$var wire 4 3 data_bus [3:0] $end
$var wire 4 4 pushbuttons [3:0] $end
$var wire 1 . reset $end
$var wire 1 " z_flag $end
$var wire 8 5 program_byte [7:0] $end
$var wire 1 $ phase $end
$var wire 4 6 oprnd [3:0] $end
$var wire 4 7 instr [3:0] $end
$var wire 13 8 decode_out [12:0] $end
$var wire 7 9 decode_in [6:0] $end
$var wire 1 ' c_flag $end
$var wire 12 : address_RAM [11:0] $end
$var wire 4 ; accu [3:0] $end
$var wire 1 < ZERO $end
$var wire 12 = PC [11:0] $end
$var wire 4 > O [3:0] $end
$var wire 4 ? FF_out [3:0] $end
$var wire 1 @ C $end
$scope module ACCU7 $end
$var wire 1 , clock $end
$var wire 1 A enabled3 $end
$var wire 1 . reset $end
$var wire 4 B D1 [3:0] $end
$var reg 4 C Q1 [3:0] $end
$upscope $end
$scope module ALU6 $end
$var wire 4 D A [3:0] $end
$var wire 4 E B [3:0] $end
$var wire 3 F F [2:0] $end
$var reg 1 @ FC $end
$var reg 1 < FZ $end
$var reg 4 G Y [3:0] $end
$upscope $end
$scope module Decode1 $end
$var wire 7 H D [6:0] $end
$var reg 13 I Q [12:0] $end
$upscope $end
$scope module Fetch1 $end
$var wire 1 , clock $end
$var wire 1 J enabled2 $end
$var wire 1 . reset $end
$var wire 8 K D2 [7:0] $end
$var reg 8 L Q2 [7:0] $end
$var reg 4 M ins [3:0] $end
$var reg 4 N op [3:0] $end
$upscope $end
$scope module Out0 $end
$var wire 4 O D [3:0] $end
$var wire 1 , clock $end
$var wire 1 P enabled $end
$var wire 1 . reset $end
$var reg 4 Q Q [3:0] $end
$upscope $end
$scope module PC1 $end
$var wire 12 R D1 [11:0] $end
$var wire 1 , clock $end
$var wire 1 S enabled1 $end
$var wire 1 T load $end
$var wire 1 . reset $end
$var reg 12 U Q1 [11:0] $end
$upscope $end
$scope module PHase9 $end
$var wire 1 , clock $end
$var wire 1 . reset $end
$var reg 1 $ Q $end
$upscope $end
$scope module ROM1 $end
$var wire 12 V M [11:0] $end
$var wire 8 W O [7:0] $end
$upscope $end
$scope module bus_1 $end
$var wire 1 X B $end
$var wire 4 Y D [3:0] $end
$var wire 4 Z Q [3:0] $end
$upscope $end
$scope module bus_2 $end
$var wire 1 [ B $end
$var wire 4 \ D [3:0] $end
$var wire 4 ] Q [3:0] $end
$upscope $end
$scope module f1 $end
$var wire 2 ^ D [1:0] $end
$var wire 1 , clock $end
$var wire 1 _ enabled $end
$var wire 1 . reset $end
$var reg 2 ` Q [1:0] $end
$upscope $end
$scope module in $end
$var wire 1 a B $end
$var wire 4 b D [3:0] $end
$var wire 4 c Q [3:0] $end
$upscope $end
$scope module ram1 $end
$var wire 1 d cs $end
$var wire 4 e data [3:0] $end
$var wire 12 f dir [11:0] $end
$var wire 1 g we $end
$var reg 4 h dataO [3:0] $end
$upscope $end
$upscope $end
$upscope $end
$enddefinitions $end
#0
$dumpvars
bx h
xg
bx f
bx e
xd
bx c
b110 b
xa
bx `
x_
bx ^
bx ]
bx \
x[
bx Z
bx Y
xX
bx W
bx V
bx U
xT
xS
bx R
bx Q
xP
bx O
bx N
bx M
bx L
bx K
xJ
bx I
bx H
bx G
bx F
bx E
bx D
bx C
bx B
xA
x@
bx ?
bx >
bx =
x<
bx ;
bx :
bx 9
bx 8
bx 7
bx 6
bx 5
b110 4
bx 3
b0 2
b100010100 1
b1010010000 0
b10000 /
0.
b110 -
0,
bx +
bx *
bx )
bx (
x'
bx &
bx %
x$
bx #
x"
bx !
$end
#2
b0 !
b0 3
b0 E
b0 O
b0 Z
b0 ]
b0 c
b0 e
0_
0g
0d
0a
0P
1[
0A
b0 F
0X
0T
1S
b0 %
b0 6
b0 N
b0 Y
b0 &
b0 7
b0 M
bx1 ^
1<
b0 >
b0 B
b0 G
b0 \
b1000000001000 8
b1000000001000 I
1J
0"
0'
b0 )
b0 ;
b0 C
b0 D
b0 L
b0 +
b0 ?
b0 Q
b1001111 (
b1001111 :
b1001111 R
b1001111 f
b1001111 #
b1001111 5
b1001111 K
b1001111 W
b0 *
b0 =
b0 U
b0 V
b0 9
b0 H
0$
b0 `
1.
#3
0.
#5
0J
b1001111 L
b1 9
b1 H
1$
b11011111 (
b11011111 :
b11011111 R
b11011111 f
b11011111 #
b11011111 5
b11011111 K
b11011111 W
b1 *
b1 =
b1 U
b1 V
1,
#10
0,
#15
b1010001 L
x"
x'
1J
bx `
bx )
bx ;
bx C
bx D
b1010001 #
b1010001 5
b1010001 K
b1010001 W
b10 *
b10 =
b10 U
b10 V
0$
bx ^
x<
bx >
bx B
bx G
bx \
bx !
bx 3
bx E
bx O
bx Z
bx ]
bx c
bx e
0_
1[
0A
b0 F
0X
1S
b1000000001000 8
b1000000001000 I
b111101010001 (
b111101010001 :
b111101010001 R
b111101010001 f
b1111 %
b1111 6
b1111 N
b1111 Y
b100xx0 9
b100xx0 H
b100 &
b100 7
b100 M
1,
#20
0,
#25
bx0 ^
0<
b110 >
b110 B
b110 G
b110 \
b110 !
b110 3
b110 E
b110 O
b110 Z
b110 ]
b110 c
b110 e
1_
1a
0[
1A
b10 F
0S
b11010000100 8
b11010000100 I
0J
1$
b1000000 #
b1000000 5
b1000000 K
b1000000 W
b11 *
b11 =
b11 U
b11 V
b101000000 (
b101000000 :
b101000000 R
b101000000 f
b1 %
b1 6
b1 N
b1 Y
b101xx1 9
b101xx1 H
b101 &
b101 7
b101 M
1,
#30
0,
#35
b1000000 L
0_
0a
1[
0A
b0 F
1S
b1000000001000 8
b1000000001000 I
1J
0"
b110 )
b110 ;
b110 C
b110 D
b101x00 9
b101x00 H
0$
bx0 `
1,
#40
0,
#45
x"
bx `
b0xx0 )
b0xx0 ;
b0xx0 C
b0xx0 D
bx1 ^
1<
b0 >
b0 B
b0 G
b0 \
b0 !
b0 3
b0 E
b0 O
b0 Z
b0 ]
b0 c
b0 e
1_
0[
1A
b10 F
1X
0S
b11010000010 8
b11010000010 I
0J
1$
b1001111 #
b1001111 5
b1001111 K
b1001111 W
b100 *
b100 =
b100 U
b100 V
b1001111 (
b1001111 :
b1001111 R
b1001111 f
b0 %
b0 6
b0 N
b0 Y
b100xx1 9
b100xx1 H
b100 &
b100 7
b100 M
1,
#50
0,
#55
b1001111 L
b0 !
b0 3
b0 E
b0 O
b0 Z
b0 ]
b0 c
b0 e
0_
1[
0A
b0 F
0X
1S
b1000000001000 8
b1000000001000 I
1J
1"
b0 )
b0 ;
b0 C
b0 D
b100x10 9
b100x10 H
0$
bx1 `
1,
#60
0,
#65
x"
bx `
bx )
bx ;
bx C
bx D
bx0 ^
0<
b1111 >
b1111 B
b1111 G
b1111 \
b1111 !
b1111 3
b1111 E
b1111 O
b1111 Z
b1111 ]
b1111 c
b1111 e
1_
0[
1A
b10 F
1X
0S
b11010000010 8
b11010000010 I
0J
b100xx1 9
b100xx1 H
1$
b10101010 #
b10101010 5
b10101010 K
b10101010 W
b101 *
b101 =
b101 U
b101 V
b111110101010 (
b111110101010 :
b111110101010 R
b111110101010 f
b1111 %
b1111 6
b1111 N
b1111 Y
1,
#70
0,
#75
b10101010 L
b1111 !
b1111 3
b1111 E
b1111 O
b1111 Z
b1111 ]
b1111 c
b1111 e
0_
1[
0A
b0 F
0X
1S
b1000000001000 8
b1000000001000 I
1J
0"
b1111 )
b1111 ;
b1111 C
b1111 D
b100x00 9
b100x00 H
0$
bx0 `
1,
#80
0,
#85
x"
bx `
bx )
bx ;
bx C
bx D
bx ^
x<
bx >
bx B
bx G
bx \
b1010 !
b1010 3
b1010 E
b1010 O
b1010 Z
b1010 ]
b1010 c
b1010 e
1_
0[
1A
b11 F
1X
0S
b11011000010 8
b11011000010 I
0J
1$
b101000 #
b101000 5
b101000 K
b101000 W
b110 *
b110 =
b110 U
b110 V
b101000101000 (
b101000101000 :
b101000101000 R
b101000101000 f
b1010 %
b1010 6
b1010 N
b1010 Y
b1010xx1 9
b1010xx1 H
b1010 &
b1010 7
b1010 M
1,
#90
0,
#95
b101000 L
bx !
bx 3
bx E
bx O
bx Z
bx ]
bx c
bx e
0_
1[
0A
b0 F
0X
1S
b1000000001000 8
b1000000001000 I
1J
b1010xx0 9
b1010xx0 H
0$
1,
#100
0,
#105
b1000 !
b1000 3
b1000 E
b1000 O
b1000 Z
b1000 ]
b1000 c
b1000 e
1_
0[
b1 F
1X
0S
b1001000010 8
b1001000010 I
0J
1$
b1001010 #
b1001010 5
b1001010 K
b1001010 W
b111 *
b111 =
b111 U
b111 V
b100001001010 (
b100001001010 :
b100001001010 R
b100001001010 f
b1000 %
b1000 6
b1000 N
b1000 Y
b10xx1 9
b10xx1 H
b10 &
b10 7
b10 M
1,
#110
0,
#115
b1001010 L
bx !
bx 3
bx E
bx O
bx Z
bx ]
bx c
bx e
0_
1[
b0 F
0X
1S
b1000000001000 8
b1000000001000 I
1J
b10xx0 9
b10xx0 H
0$
1,
#120
0,
#125
bx0 ^
0<
b1010 >
b1010 B
b1010 G
b1010 \
b1010 !
b1010 3
b1010 E
b1010 O
b1010 Z
b1010 ]
b1010 c
b1010 e
1_
0[
1A
b10 F
1X
0S
b11010000010 8
b11010000010 I
0J
1$
b101100 #
b101100 5
b101100 K
b101100 W
b1000 *
b1000 =
b1000 U
b1000 V
b101000101100 (
b101000101100 :
b101000101100 R
b101000101100 f
b1010 %
b1010 6
b1010 N
b1010 Y
b100xx1 9
b100xx1 H
b100 &
b100 7
b100 M
1,
#130
0,
#135
b101100 L
b1010 !
b1010 3
b1010 E
b1010 O
b1010 Z
b1010 ]
b1010 c
b1010 e
0_
1[
0A
b0 F
0X
1S
b1000000001000 8
b1000000001000 I
1J
0"
b1010 )
b1010 ;
b1010 C
b1010 D
b100x00 9
b100x00 H
0$
bx0 `
1,
#140
0,
#145
x"
bx `
bx0 ^
0<
b1110 >
b1110 B
b1110 G
b1110 \
b1100 !
b1100 3
b1100 E
b1100 O
b1100 Z
b1100 ]
b1100 c
b1100 e
1_
0[
b1 F
1X
0S
b1001000010 8
b1001000010 I
0J
1$
b10100001 #
b10100001 5
b10100001 K
b10100001 W
b1001 *
b1001 =
b1001 U
b1001 V
b110010100001 (
b110010100001 :
b110010100001 R
b110010100001 f
b1100 %
b1100 6
b1100 N
b1100 Y
b10xx1 9
b10xx1 H
b10 &
b10 7
b10 M
1,
#150
0,
#155
b10100001 L
b1010 >
b1010 B
b1010 G
b1010 \
b1010 !
b1010 3
b1010 E
b1010 O
b1010 Z
b1010 ]
b1010 c
b1010 e
0_
1[
b0 F
0X
1S
b1000000001000 8
b1000000001000 I
1J
0"
b10x00 9
b10x00 H
0$
bx0 `
1,
#160
0,
#165
x"
bx `
bx )
bx ;
bx C
bx D
bx ^
x<
bx >
bx B
bx G
bx \
b1 !
b1 3
b1 E
b1 O
b1 Z
b1 ]
b1 c
b1 e
1_
0[
1A
b11 F
1X
0S
b11011000010 8
b11011000010 I
0J
1$
b11101011 #
b11101011 5
b11101011 K
b11101011 W
b1010 *
b1010 =
b1010 U
b1010 V
b111101011 (
b111101011 :
b111101011 R
b111101011 f
b1 %
b1 6
b1 N
b1 Y
b1010xx1 9
b1010xx1 H
b1010 &
b1010 7
b1010 M
1,
#170
0,
#175
b11101011 L
bx !
bx 3
bx E
bx O
bx Z
bx ]
bx c
bx e
0_
1[
0A
b0 F
0X
1S
b1000000001000 8
b1000000001000 I
1J
b1010xx0 9
b1010xx0 H
0$
1,
#180
0,
#185
bx0 ^
0<
bx1xx >
bx1xx B
bx1xx G
bx1xx \
b1011 !
b1011 3
b1011 E
b1011 O
b1011 Z
b1011 ]
b1011 c
b1011 e
1_
0[
1A
b100 F
1X
0S
b11100000010 8
b11100000010 I
0J
1$
b11010000 #
b11010000 5
b11010000 K
b11010000 W
b1011 *
b1011 =
b1011 U
b1011 V
b101111010000 (
b101111010000 :
b101111010000 R
b101111010000 f
b1011 %
b1011 6
b1011 N
b1011 Y
b1110xx1 9
b1110xx1 H
b1110 &
b1110 7
b1110 M
1,
#190
0,
#195
b11010000 L
bx1xx !
bx1xx 3
bx1xx E
bx1xx O
bx1xx Z
bx1xx ]
bx1xx c
bx1xx e
0_
1[
0A
b0 F
0X
1S
b1000000001000 8
b1000000001000 I
1J
0"
bx1xx )
bx1xx ;
bx1xx C
bx1xx D
b1110x00 9
b1110x00 H
0$
bx0 `
1,
#200
0,
#205
bx1xx +
bx1xx ?
bx1xx Q
1P
0S
b1001 8
b1001 I
0J
1$
b1010000 #
b1010000 5
b1010000 K
b1010000 W
b1100 *
b1100 =
b1100 U
b1100 V
b1010000 (
b1010000 :
b1010000 R
b1010000 f
b0 %
b0 6
b0 N
b0 Y
b1101x01 9
b1101x01 H
b1101 &
b1101 7
b1101 M
1,
#210
0,
#215
b1010000 L
0P
1S
b1000000001000 8
b1000000001000 I
1J
b1101x00 9
b1101x00 H
0$
1,
#220
0,
#225
b110 >
b110 B
b110 G
b110 \
b110 !
b110 3
b110 E
b110 O
b110 Z
b110 ]
b110 c
b110 e
1_
1a
0[
1A
b10 F
0S
b11010000100 8
b11010000100 I
0J
1$
b1110000 (
b1110000 :
b1110000 R
b1110000 f
b1110000 #
b1110000 5
b1110000 K
b1110000 W
b1101 *
b1101 =
b1101 U
b1101 V
b101x01 9
b101x01 H
b101 &
b101 7
b101 M
1,
#230
0,
#235
b1110000 L
0_
0a
1[
0A
b0 F
1S
b1000000001000 8
b1000000001000 I
1J
b110 )
b110 ;
b110 C
b110 D
b101x00 9
b101x00 H
0$
1,
#236
b1110 -
b1110 4
b1110 b
#240
0,
#245
1g
1d
b1000000111000 8
b1000000111000 I
0J
1$
b0xxxxxxxx (
b0xxxxxxxx :
b0xxxxxxxx R
b0xxxxxxxx f
bx #
bx 5
bx K
bx W
b1110 *
b1110 =
b1110 U
b1110 V
b111x01 9
b111x01 H
b111 &
b111 7
b111 M
1,
#250
0,
#255
bx L
0g
0d
b1000000001000 8
b1000000001000 I
1J
b1111 *
b1111 =
b1111 U
b1111 V
b111x00 9
b111x00 H
0$
1,
#260
0,
#265
1T
0S
b100000001000 8
b100000001000 I
0J
1$
b10000 *
b10000 =
b10000 U
b10000 V
bx (
bx :
bx R
bx f
bx %
bx 6
bx N
bx Y
bx01 9
bx01 H
bx &
bx 7
bx M
1,
#270
0,
#275
0T
1S
b1000000001000 8
b1000000001000 I
1J
bx *
bx =
bx U
bx V
bx00 9
bx00 H
0$
1,
#280
0,
#285
1T
0S
b100000001000 8
b100000001000 I
0J
bx01 9
bx01 H
1$
1,
#290
0,
#295
0T
1S
b1000000001000 8
b1000000001000 I
1J
bx00 9
bx00 H
0$
1,
#300
0,
#305
1T
0S
b100000001000 8
b100000001000 I
0J
bx01 9
bx01 H
1$
1,
#310
0,
#315
0T
1S
b1000000001000 8
b1000000001000 I
1J
bx00 9
bx00 H
0$
1,
#320
0,
#325
1T
0S
b100000001000 8
b100000001000 I
0J
bx01 9
bx01 H
1$
1,
#330
0,
#335
0T
1S
b1000000001000 8
b1000000001000 I
1J
bx00 9
bx00 H
0$
1,
#340
0,
#345
1T
0S
b100000001000 8
b100000001000 I
0J
bx01 9
bx01 H
1$
1,
#350
0,
#355
0T
1S
b1000000001000 8
b1000000001000 I
1J
bx00 9
bx00 H
0$
1,
#360
0,
#365
1T
0S
b100000001000 8
b100000001000 I
0J
bx01 9
bx01 H
1$
1,
#370
0,
#375
0T
1S
b1000000001000 8
b1000000001000 I
1J
bx00 9
bx00 H
0$
1,
#380
0,
#385
1T
0S
b100000001000 8
b100000001000 I
0J
bx01 9
bx01 H
1$
1,
#390
0,
#395
0T
1S
b1000000001000 8
b1000000001000 I
1J
bx00 9
bx00 H
0$
1,
#400
0,
#405
1T
0S
b100000001000 8
b100000001000 I
0J
bx01 9
bx01 H
1$
1,
#410
0,
#415
0T
1S
b1000000001000 8
b1000000001000 I
1J
bx00 9
bx00 H
0$
1,
#420
0,
#425
1T
0S
b100000001000 8
b100000001000 I
0J
bx01 9
bx01 H
1$
1,
#430
0,
#435
0T
1S
b1000000001000 8
b1000000001000 I
1J
bx00 9
bx00 H
0$
1,
#440
0,
#445
1T
0S
b100000001000 8
b100000001000 I
0J
bx01 9
bx01 H
1$
1,
#450
0,
#455
0T
1S
b1000000001000 8
b1000000001000 I
1J
bx00 9
bx00 H
0$
1,
#460
0,
#465
1T
0S
b100000001000 8
b100000001000 I
0J
bx01 9
bx01 H
1$
1,
#470
0,
#475
0T
1S
b1000000001000 8
b1000000001000 I
1J
bx00 9
bx00 H
0$
1,
#480
0,
#485
1T
0S
b100000001000 8
b100000001000 I
0J
bx01 9
bx01 H
1$
1,
#490
0,
#495
0T
1S
b1000000001000 8
b1000000001000 I
1J
bx00 9
bx00 H
0$
1,
#500
0,
#505
1T
0S
b100000001000 8
b100000001000 I
0J
bx01 9
bx01 H
1$
1,
#510
0,
#515
0T
1S
b1000000001000 8
b1000000001000 I
1J
bx00 9
bx00 H
0$
1,
#520
0,
#525
1T
0S
b100000001000 8
b100000001000 I
0J
bx01 9
bx01 H
1$
1,
#530
0,
#535
0T
1S
b1000000001000 8
b1000000001000 I
1J
bx00 9
bx00 H
0$
1,
#540
0,
#545
1T
0S
b100000001000 8
b100000001000 I
0J
bx01 9
bx01 H
1$
1,
#550
0,
#555
0T
1S
b1000000001000 8
b1000000001000 I
1J
bx00 9
bx00 H
0$
1,
#560
0,
#565
1T
0S
b100000001000 8
b100000001000 I
0J
bx01 9
bx01 H
1$
1,
#570
0,
#575
0T
1S
b1000000001000 8
b1000000001000 I
1J
bx00 9
bx00 H
0$
1,
#580
0,
#585
1T
0S
b100000001000 8
b100000001000 I
0J
bx01 9
bx01 H
1$
1,
#590
0,
#595
0T
1S
b1000000001000 8
b1000000001000 I
1J
bx00 9
bx00 H
0$
1,
#600
0,
#605
1T
0S
b100000001000 8
b100000001000 I
0J
bx01 9
bx01 H
1$
1,
#610
0,
#615
0T
1S
b1000000001000 8
b1000000001000 I
1J
bx00 9
bx00 H
0$
1,
#620
0,
#625
1T
0S
b100000001000 8
b100000001000 I
0J
bx01 9
bx01 H
1$
1,
#630
0,
#635
0T
1S
b1000000001000 8
b1000000001000 I
1J
bx00 9
bx00 H
0$
1,
#640
0,
#645
1T
0S
b100000001000 8
b100000001000 I
0J
bx01 9
bx01 H
1$
1,
#650
0,
#655
0T
1S
b1000000001000 8
b1000000001000 I
1J
bx00 9
bx00 H
0$
1,
#660
0,
#665
1T
0S
b100000001000 8
b100000001000 I
0J
bx01 9
bx01 H
1$
1,
#670
0,
#675
0T
1S
b1000000001000 8
b1000000001000 I
1J
bx00 9
bx00 H
0$
1,
#680
0,
#685
1T
0S
b100000001000 8
b100000001000 I
0J
bx01 9
bx01 H
1$
1,
#690
0,
#695
0T
1S
b1000000001000 8
b1000000001000 I
1J
bx00 9
bx00 H
0$
1,
#700
0,
#705
1T
0S
b100000001000 8
b100000001000 I
0J
bx01 9
bx01 H
1$
1,
#710
0,
#715
0T
1S
b1000000001000 8
b1000000001000 I
1J
bx00 9
bx00 H
0$
1,
#720
0,
#725
1T
0S
b100000001000 8
b100000001000 I
0J
bx01 9
bx01 H
1$
1,
#730
0,
#735
0T
1S
b1000000001000 8
b1000000001000 I
1J
bx00 9
bx00 H
0$
1,
#740
0,
#745
1T
0S
b100000001000 8
b100000001000 I
0J
bx01 9
bx01 H
1$
1,
#750
0,
#755
0T
1S
b1000000001000 8
b1000000001000 I
1J
bx00 9
bx00 H
0$
1,
#760
0,
#765
1T
0S
b100000001000 8
b100000001000 I
0J
bx01 9
bx01 H
1$
1,
#770
0,
#775
0T
1S
b1000000001000 8
b1000000001000 I
1J
bx00 9
bx00 H
0$
1,
#780
0,
#785
1T
0S
b100000001000 8
b100000001000 I
0J
bx01 9
bx01 H
1$
1,
#790
0,
#795
0T
1S
b1000000001000 8
b1000000001000 I
1J
bx00 9
bx00 H
0$
1,
#800
0,
#805
1T
0S
b100000001000 8
b100000001000 I
0J
bx01 9
bx01 H
1$
1,
#810
0,
#815
0T
1S
b1000000001000 8
b1000000001000 I
1J
bx00 9
bx00 H
0$
1,
#820
0,
#825
1T
0S
b100000001000 8
b100000001000 I
0J
bx01 9
bx01 H
1$
1,
#830
0,
#835
0T
1S
b1000000001000 8
b1000000001000 I
1J
bx00 9
bx00 H
0$
1,
#840
0,
#845
1T
0S
b100000001000 8
b100000001000 I
0J
bx01 9
bx01 H
1$
1,
#850
0,
#855
0T
1S
b1000000001000 8
b1000000001000 I
1J
bx00 9
bx00 H
0$
1,
#860
0,
#865
1T
0S
b100000001000 8
b100000001000 I
0J
bx01 9
bx01 H
1$
1,
#870
0,
#875
0T
1S
b1000000001000 8
b1000000001000 I
1J
bx00 9
bx00 H
0$
1,
#880
0,
#885
1T
0S
b100000001000 8
b100000001000 I
0J
bx01 9
bx01 H
1$
1,
#890
0,
#895
0T
1S
b1000000001000 8
b1000000001000 I
1J
bx00 9
bx00 H
0$
1,
#900
0,
#905
1T
0S
b100000001000 8
b100000001000 I
0J
bx01 9
bx01 H
1$
1,
#910
0,
#915
0T
1S
b1000000001000 8
b1000000001000 I
1J
bx00 9
bx00 H
0$
1,
#920
0,
#925
1T
0S
b100000001000 8
b100000001000 I
0J
bx01 9
bx01 H
1$
1,
#930
0,
#935
0T
1S
b1000000001000 8
b1000000001000 I
1J
bx00 9
bx00 H
0$
1,
#940
0,
#945
1T
0S
b100000001000 8
b100000001000 I
0J
bx01 9
bx01 H
1$
1,
#950
0,
#955
0T
1S
b1000000001000 8
b1000000001000 I
1J
bx00 9
bx00 H
0$
1,
#960
0,
#965
1T
0S
b100000001000 8
b100000001000 I
0J
bx01 9
bx01 H
1$
1,
#970
0,
#975
0T
1S
b1000000001000 8
b1000000001000 I
1J
bx00 9
bx00 H
0$
1,
#980
0,
#985
1T
0S
b100000001000 8
b100000001000 I
0J
bx01 9
bx01 H
1$
1,
#990
0,
#995
0T
1S
b1000000001000 8
b1000000001000 I
1J
bx00 9
bx00 H
0$
1,
